:100000000C945C000C946E000C946E000C946E00CA
:100010000C946E000C946E000C946E000C946E00A8
:100020000C946E000C946E000C946E000C946E0098
:100030000C946E000C946E000C946E000C946E0088
:100040000C941E010C946E000C946E000C946E00C7
:100050000C946E000C946E000C946E000C946E0068
:100060000C946E000C946E0000000007000201006A
:100070000003040600000000000000000102040864
:100080001020408001020408102001020408102002
:10009000040404040404040402020202020203032E
:1000A0000303030300000000250028002B000000CC
:1000B0000000240027002A0011241FBECFEFD8E043
:1000C000DEBFCDBF11E0A0E0B1E001C01D92A930BC
:1000D000B107E1F70E9411010C94A3010C940000F8
:1000E00061E08DE00C94A20060E08DE00C94DA00F9
:1000F000833069F028F48130A1F0823011F514C00A
:100100008630B1F08730C1F08430D9F404C08091DA
:1001100080008F7703C0809180008F7D8093800066
:10012000089584B58F7702C084B58F7D84BD08950E
:100130008091B0008F7703C08091B0008F7D809355
:10014000B0000895CF93DF9390E0FC01E458FF4F97
:100150004491FC01E057FF4F8491882341F190E0E6
:10016000880F991FFC01E255FF4F25913491D90169
:100170008C559F4FFC0185919491C82FD92F9FB723
:10018000F8948C91611106C0409584238C938881EA
:10019000842308C0623041F4242F209582238C935D
:1001A0008881842B888302C0842B8C939FBFDF912E
:1001B000CF9108950F931F93CF93DF931F92CDB7E5
:1001C000DEB7282F30E0F901E859FF4F8491F9019B
:1001D000E458FF4F1491F901E057FF4F04910023B9
:1001E000D1F0882321F069830E9478006981E02F93
:1001F000F0E0EE0FFF1FEC55FF4F85919491DC016D
:100200009FB7F8948C91611103C01095812301C0B0
:10021000812B8C939FBF0F90DF91CF911F910F91F6
:1002200008950E9468010E947000C0E0D0E00E9422
:1002300074002097E1F30E940000F9CF1F920F9203
:100240000FB60F9211242F933F938F939F93AF93E9
:10025000BF938091000190910101A0910201B091A2
:10026000030130910801232F2D5F2D3720F40196D3
:10027000A11DB11D05C0232F2A570296A11DB11D36
:10028000209308018093000190930101A093020143
:10029000B09303018091040190910501A0910601A2
:1002A000B09107010196A11DB11D809304019093A7
:1002B0000501A0930601B0930701BF91AF919F91F3
:1002C0008F913F912F910F900FBE0F901F90189517
:1002D000789484B5826084BD84B5816084BD85B521
:1002E000826085BD85B5816085BDEEE6F0E08081E8
:1002F00081608083E1E8F0E0108280818260808309
:10030000808181608083E0E8F0E08081816080838B
:10031000E1EBF0E0808184608083E0EBF0E08081BD
:1003200081608083EAE7F0E080818460808380815F
:100330008260808380818160808380818068808307
:100340001092C1000895F8940C94A601F894FFCF80
:00000001FF
