:100000000C9461000C9473000C9473000C947300B6
:100010000C9473000C9473000C9473000C94730094
:100020000C9473000C9473000C9473000C94730084
:100030000C9473000C9473000C9473000C94730074
:100040000C9414010C9473000C9473000C947300C2
:100050000C9473000C9473000C9473000C94730054
:100060000C9473000C947300000000070002010060
:100070000003040600000000000000000102040864
:100080001020408001020408102001020408102002
:10009000040404040404040402020202020203032E
:1000A00003030303000000002300260029000000D2
:1000B0000000250028002B0000000000240027007D
:1000C0002A0011241FBECFEFD8E0DEBFCDBF11E064
:1000D000A0E0B1E001C01D92A930B107E1F70E9494
:1000E00007010C9499010C94000060E08DE00C94E1
:1000F000A6008DE00C94DE00833069F028F4813096
:10010000A1F0823011F514C08630B1F08730C1F013
:100110008430D9F404C0809180008F7703C080912F
:1001200080008F7D80938000089584B58F7702C012
:1001300084B58F7D84BD08958091B0008F7703C012
:100140008091B0008F7D8093B0000895CF93DF93AE
:1001500090E0FC01E458FF4F4491FC01E057FF4F51
:100160008491882341F190E0880F991FFC01E854A5
:10017000FF4F25913491D90182559F4FFC01859104
:100180009491C82FD92F9FB7F8948C91611106C014
:10019000409584238C938881842308C0623041F485
:1001A000242F209582238C938881842B888302C0FE
:1001B000842B8C939FBFDF91CF910895CF93DF93D2
:1001C000282F30E0F901E859FF4F8491F901E458F4
:1001D000FF4FD491F901E057FF4FC491CC2389F030
:1001E00081110E947C00EC2FF0E0EE0FFF1FEC5518
:1001F000FF4F85919491DC018C918D2321E030E0BB
:1002000011F420E030E0C901DF91CF9108950E9400
:100210005E010E947500C0E0D0E00E947900209746
:10022000E1F30E940000F9CF1F920F920FB60F92D8
:1002300011242F933F938F939F93AF93BF938091FC
:10024000000190910101A0910201B0910301309150
:100250000801232F2D5F2D3720F40196A11DB11D1C
:1002600005C0232F2A570296A11DB11D2093080116
:100270008093000190930101A0930201B0930301C8
:100280008091040190910501A0910601B0910701B0
:100290000196A11DB11D8093040190930501A093C7
:1002A0000601B0930701BF91AF919F918F913F914C
:1002B0002F910F900FBE0F901F901895789484B5D2
:1002C000826084BD84B5816084BD85B5826085BD52
:1002D00085B5816085BDEEE6F0E080818160808338
:1002E000E1E8F0E01082808182608083808181601B
:1002F0008083E0E8F0E0808181608083E1EBF0E0E2
:10030000808184608083E0EBF0E080818160808385
:10031000EAE7F0E08081846080838081826080836E
:100320008081816080838081806880831092C10099
:0C0330000895F8940C949C01F894FFCF01
:00000001FF
