:100000000C945C000C946E000C946E000C946E00CA
:100010000C946E000C946E000C946E000C946E00A8
:100020000C946E000C946E000C946E000C946E0098
:100030000C946E000C946E000C946E000C946E0088
:100040000C9488000C946E000C946E000C946E005E
:100050000C946E000C946E000C946E000C946E0068
:100060000C946E000C946E0000000007000201006A
:100070000003040600000000000000000102040864
:100080001020408001020408102001020408102002
:10009000040404040404040402020202020203032E
:1000A0000303030300000000250028002B000000CC
:1000B0000000240027002A0011241FBECFEFD8E043
:1000C000DEBFCDBF11E0A0E0B1E001C01D92A930BC
:1000D000B107E1F70E94F6010C9403020C940000B2
:1000E00061E080E00C94870161E080E00E94BF0144
:1000F00068EE73E080E090E00E94FC0061E080E048
:100100000E94BF0168EE73E080E090E00C94FC0078
:100110001F920F920FB60F9211242F933F938F933C
:100120009F93AF93BF938091000190910101A091A3
:100130000201B091030130910801232F2D5F2D376B
:1001400020F40196A11DB11D05C0232F2A57029648
:10015000A11DB11D2093080180930001909301011E
:10016000A0930201B09303018091040190910501D5
:10017000A0910601B09107010196A11DB11D8093C8
:10018000040190930501A0930601B0930701BF916C
:10019000AF919F918F913F912F910F900FBE0F9034
:1001A0001F9018950F931F939FB7F8940091040127
:1001B00010910501209106013091070186B5A89B99
:1001C00006C08F3F21F00F5F1F4F2F4F3F4F9FBF44
:1001D000322F212F102F0027080F111D211D311D37
:1001E00042E0000F111F221F331F4A95D1F7B801BB
:1001F000C9011F910F910895CF92DF92EF92FF9264
:10020000CF93DF936B017C010E94D200EB010EC003
:100210000E94D2006C1B7D0B683E734038F081E079
:10022000C81AD108E108F108C851DC4FC114D10443
:10023000E104F10469F7DF91CF91FF90EF90DF9037
:10024000CF900895789484B5826084BD84B5816030
:1002500084BD85B5826085BD85B5816085BDEEE6CE
:10026000F0E0808181608083E1E8F0E010828081AD
:1002700082608083808181608083E0E8F0E080811B
:1002800081608083E1EBF0E0808184608083E0EB3B
:10029000F0E0808181608083EAE7F0E08081846023
:1002A000808380818260808380818160808380817F
:1002B000806880831092C1000895833069F028F42B
:1002C0008130A1F0823011F514C08630B1F0873052
:1002D000C1F08430D9F404C0809180008F7703C0CE
:1002E000809180008F7D80938000089584B58F7702
:1002F00002C084B58F7D84BD08958091B0008F7752
:1003000003C08091B0008F7D8093B0000895CF939B
:10031000DF9390E0FC01E458FF4F4491FC01E0576B
:10032000FF4F8491882341F190E0880F991FFC01D1
:10033000E255FF4F25913491D9018C559F4FFC0117
:1003400085919491C82FD92F9FB7F8948C91611102
:1003500006C0409584238C938881842308C0623032
:1003600041F4242F209582238C938881842B8883C9
:1003700002C0842B8C939FBFDF91CF9108950F9380
:100380001F93CF93DF931F92CDB7DEB7282F30E0B6
:10039000F901E859FF4F8491F901E458FF4F149196
:1003A000F901E057FF4F04910023D1F0882321F099
:1003B00069830E945D016981E02FF0E0EE0FFF1F6D
:1003C000EC55FF4F85919491DC019FB7F8948C9187
:1003D000611103C01095812301C0812B8C939FBFB5
:1003E0000F90DF91CF911F910F9108950E942201EC
:1003F0000E947000C0E0D0E00E9474002097E1F3FA
:100400000E940000F9CFF8940C940602F894FFCFF4
:00000001FF
