:100000000C945D000C9485000C9485000C94850084
:100010000C9485000C9485000C9485000C9485004C
:100020000C9485000C9485000C9485000C94AD0014
:100030000C9485000C9485000C9485000C9485002C
:100040000C949F020C9485000C9485000C94850000
:100050000C9485000C9485000C9485000C9485000C
:100060000C9485000C94850000000007000201003C
:100070000003040600000000000000000102040864
:100080001020408001020408102001020408102002
:10009000040404040404040402020202020203032E
:1000A0000303030300000000250028002B000000CC
:1000B0000000240027002A009C0011241FBECFEF5F
:1000C000D8E0DEBFCDBF11E0A0E0B1E0E0E0F9E0B4
:1000D00002C005900D92A030B107D9F711E0A0E061
:1000E000B1E001C01D92A233B107E1F710E0CAEB05
:1000F000D0E004C02297FE010E947A04C83BD107D9
:10010000C9F70E94A0000C9404040C94000063E062
:1001100070E080E091E00C940802CF93DF93CAE096
:10012000D0E06AE570E080E091E00E944102219712
:10013000C1F7DF91CF91089580E091E00C946B01BD
:100140000E94E9020E948700C0E0D0E00E948D007A
:100150002097E1F30E940000F9CF1F920F920FB693
:100160000F9211242F933F934F935F936F937F933D
:100170008F939F93AF93BF93EF93FF93809104016D
:1001800087FF05C010928500109284001AC020914C
:100190000401332727FD30958091030190E0281753
:1001A00039077CF480910401992787FD9095FC0123
:1001B000EE0FFF1FE80FF91FEB5FFE4F808186FDFA
:1001C00037C0809104018F5F809304012091040166
:1001D000332727FD30958091030190E028173907D8
:1001E000CCF5809104018C30F4F134C0809104018D
:1001F000992787FD9095FC01EE0FFF1FE80FF91F6F
:10020000EB5FFE4F808161E08F730E94860352C0D6
:1002100080E49CE905C0809184009091850004965B
:1002200090938900809388008FEF8093040142C0EF
:1002300080910401992787FD9095FC01EE0FFF1F27
:10024000E80FF91FEB5FFE4F808160E08F730E9423
:100250008603B7CF80918400909185000496803406
:100260009C49B0F2D8CF8091840090918500209174
:100270000401332727FD3095F901EE0FFF1FE20F30
:10028000F31FEB5FFE4F21813281820F931F90930A
:1002900089008093880080910401992787FD9095BB
:1002A000FC01EE0FFF1FE80FF91FEB5FFE4F80818F
:1002B00086FD9CCFFF91EF91BF91AF919F918F9160
:1002C0007F916F915F914F913F912F910F900FBE52
:1002D0000F901F901895209103012C30A0F4FC0181
:1002E0002083822F8F5F80930301822F90E0FC0197
:1002F000EE0FFF1FE80FF91FEB5FFE4F88EB9BE04F
:100300009283818308952FEFFC0120830895DF926B
:10031000EF92FF920F931F93CF93DF93EC01D62EB2
:100320007A01890188818C3008F065C061E08D2DEB
:100330000E944E038881A82FB0E0FD01EE0FFF1F41
:10034000EA0FFB1FEB5FFE4F2D2D2F739081907CEA
:10035000922B908360E272E06E197F0977FF02C0F2
:100360006D5F7F4F7595679575956795698340E6D5
:1003700059E0401B510B57FF02C04D5F5F4F559531
:100380004795559547954A836CE00E9422049CE06E
:10039000899FB001112420E030E0A901460F571FCA
:1003A000FA01EE0FFF1FE40FF51FEB5FFE4F908188
:1003B00096FD15C02F5F3F4F2C30310571F71DC0E2
:1003C0001092800082E0809381001092850010924C
:1003D0008400B19A80916F00826080936F00888161
:1003E00090E0FC01EE0FFF1FE80FF91FEB5FFE4FDF
:1003F000808180648083888103C0882309F3EFCFE4
:10040000DF91CF911F910F91FF90EF90DF900895B2
:1004100020E639E040E252E00C948701FC01808143
:100420008C3070F5918128E830E0291B310997FD67
:100430003395220F331F220F331F621773077CF08F
:10044000928128E532E0291B310997FD3395220F6F
:10045000331F220F331F621773070CF49B014FB732
:10046000F89490E0FC01EE0FFF1FE80FF91FEB5F1F
:10047000FE4F22503109220F331F328321834FBF99
:100480000895AF92BF92CF92DF92EF92FF920F93B7
:100490001F93CF93DF93EC01603282E078070CF07A
:1004A00041C077FD04C0653B710524F405C060E0E0
:1004B00070E002C064EB70E0298188E890E0821B64
:1004C000910927FD9395880F991F880F991F5C014B
:1004D000CC24B7FCC094DC2C882777FD8095982F1E
:1004E0002A8148E552E0421B510927FD5395440FEC
:1004F000551F440F551F8A01222717FD2095322FC3
:100500003F932F931F930F9314EBE12EF12C00E0F8
:1005100010E020E030E0A9010E94BD030F900F9091
:100520000F900F90CE01DF91CF911F910F91FF900F
:10053000EF90DF90CF90BF90AF900C940E021F927F
:100540000F920FB60F9211242F933F938F939F9387
:10055000AF93BF938091290190912A01A0912B0123
:10056000B0912C0130913101232F2D5F2D3720F4D4
:100570000196A11DB11D05C0232F2A570296A11D6A
:10058000B11D209331018093290190932A01A093FA
:100590002B01B0932C0180912D0190912E01A091FF
:1005A0002F01B09130010196A11DB11D80932D0145
:1005B00090932E01A0932F01B0933001BF91AF9182
:1005C0009F918F913F912F910F900FBE0F901F9091
:1005D0001895789484B5826084BD84B5816084BDAB
:1005E00085B5826085BD85B5816085BDEEE6F0E0AC
:1005F000808181608083E1E8F0E010828081826008
:100600008083808181608083E0E8F0E08081816088
:100610008083E1EBF0E0808184608083E0EBF0E0B8
:10062000808181608083EAE7F0E08081846080835C
:100630008081826080838081816080838081806806
:1006400080831092C1000895833069F028F48130CE
:10065000A1F0823011F514C08630B1F08730C1F0BE
:100660008430D9F404C0809180008F7703C08091DA
:1006700080008F7D80938000089584B58F7702C0BD
:1006800084B58F7D84BD08958091B0008F7703C0BD
:100690008091B0008F7D8093B0000895CF93DF9359
:1006A00090E0FC01E458FF4F4491FC01E057FF4FFC
:1006B0008491882341F190E0880F991FFC01E25555
:1006C000FF4F25913491D9018C559F4FFC018591A5
:1006D0009491C82FD92F9FB7F8948C91611106C0BF
:1006E000409584238C938881842308C0623041F430
:1006F000242F209582238C938881842B888302C0A9
:10070000842B8C939FBFDF91CF9108950F931F93FC
:10071000CF93DF931F92CDB7DEB7282F30E0F901DA
:10072000E859FF4F8491F901E458FF4F1491F90102
:10073000E057FF4F04910023D1F0882321F0698313
:100740000E9424036981E02FF0E0EE0FFF1FEC55BB
:10075000FF4F85919491DC019FB7F8948C916111C2
:1007600003C01095812301C0812B8C939FBF0F90F4
:10077000DF91CF911F910F9108954F925F926F92E9
:100780007F92AF92BF92CF92DF92EF92FF920F9340
:100790001F93CF93DF93CDB7DEB729013A01621BD8
:1007A000730B840B950B29893A894B895C892A192B
:1007B0003B094C095D09298B3A8B4B8B5C8B9B0168
:1007C000AC0169897A898B899C890E941204E4189A
:1007D000F50806091709A80197010E942E042A0DA1
:1007E0003B1D4C1D5D1DB901CA01DF91CF911F91C9
:1007F0000F91FF90EF90DF90CF90BF90AF907F90E0
:100800006F905F904F900895F8940C947E040E942E
:100810004A04A59F900DB49F900DA49F800D911D3B
:1008200011240895DB018F939F930E940704BF91C9
:10083000AF91A29F800D911DA39F900DB29F900D2F
:1008400011240895991B79E004C0991F961708F0A8
:10085000961B881F7A95C9F780950895052E97FBFA
:1008600016F4009407D057FD0DD00E94560407FCE3
:1008700009D07EF490958095709561957F4F8F4F4C
:100880009F4F089550954095309521953F4F4F4F7C
:100890005F4F0895A29FB001B39FC001A39F01D0F5
:1008A000B29F700D811D1124911D0895A1E21A2E91
:1008B000AA1BBB1BFD010DC0AA1FBB1FEE1FFF1F04
:1008C000A217B307E407F50720F0A21BB30BE40B54
:1008D000F50B661F771F881F991F1A9469F760959B
:1008E0007095809590959B01AC01BD01CF01089555
:1008F000EE0FFF1F0590F491E02D0994F894FFCFBF
:00000001FF
