:100000000C945D000C9485000C9485000C94850084
:100010000C9485000C9485000C9485000C9485004C
:100020000C9485000C9485000C9485000C94A4001D
:100030000C9485000C9485000C9485000C9485002C
:100040000C9496020C9485000C9485000C94850009
:100050000C9485000C9485000C9485000C9485000C
:100060000C9485000C94850000000007000201003C
:100070000003040600000000000000000102040864
:100080001020408001020408102001020408102002
:10009000040404040404040402020202020203032E
:1000A0000303030300000000250028002B000000CC
:1000B0000000240027002A00930011241FBECFEF68
:1000C000D8E0DEBFCDBF11E0A0E0B1E0EEEEF8E099
:1000D00002C005900D92A030B107D9F711E0A0E061
:1000E000B1E001C01D92A233B107E1F710E0CAEB05
:1000F000D0E004C02297FE010E947104C83BD107E2
:10010000C9F70E9497000C94FB030C94000063E075
:1001100070E080E091E00C94FF0160E573EC80E01A
:1001200091E00C94380280E091E00C9462010E940E
:10013000E0020E948700C0E0D0E00E948D0020977E
:10014000E1F30E940000F9CF1F920F920FB60F92B9
:1001500011242F933F934F935F936F937F938F93CC
:100160009F93AF93BF93EF93FF938091040187FF19
:1001700005C010928500109284001AC020910401DD
:10018000332727FD30958091030190E02817390728
:100190007CF480910401992787FD9095FC01EE0F76
:1001A000FF1FE80FF91FEB5FFE4F808186FD37C010
:1001B000809104018F5F8093040120910401332713
:1001C00027FD30958091030190E028173907CCF581
:1001D000809104018C30F4F134C08091040199279E
:1001E00087FD9095FC01EE0FFF1FE80FF91FEB5FF5
:1001F000FE4F808161E08F730E947D0352C080E4D6
:100200009CE905C0809184009091850004969093AC
:100210008900809388008FEF8093040142C0809111
:100220000401992787FD9095FC01EE0FFF1FE80F51
:10023000F91FEB5FFE4F808160E08F730E947D03AA
:10024000B7CF8091840090918500049680349C49BA
:10025000B0F2D8CF80918400909185002091040164
:10026000332727FD3095F901EE0FFF1FE20FF31F33
:10027000EB5FFE4F21813281820F931F90938900A3
:100280008093880080910401992787FD9095FC0157
:10029000EE0FFF1FE80FF91FEB5FFE4F808186FD19
:1002A0009CCFFF91EF91BF91AF919F918F917F91E3
:1002B0006F915F914F913F912F910F900FBE0F90D3
:1002C0001F901895209103012C30A0F4FC0120838D
:1002D000822F8F5F80930301822F90E0FC01EE0F4D
:1002E000FF1FE80FF91FEB5FFE4F88EB9BE0928347
:1002F000818308952FEFFC0120830895DF92EF9210
:10030000FF920F931F93CF93DF93EC01D62E7A01C8
:10031000890188818C3008F065C061E08D2D0E94D4
:1003200045038881A82FB0E0FD01EE0FFF1FEA0F03
:10033000FB1FEB5FFE4F2D2D2F739081907C922B36
:10034000908360E272E06E197F0977FF02C06D5FF3
:100350007F4F7595679575956795698340E659E078
:10036000401B510B57FF02C04D5F5F4F559547959E
:10037000559547954A836CE00E9419049CE0899F3B
:10038000B001112420E030E0A901460F571FFA0107
:10039000EE0FFF1FE40FF51FEB5FFE4F908196FD00
:1003A00015C02F5F3F4F2C30310571F71DC01092E3
:1003B000800082E08093810010928500109284007A
:1003C000B19A80916F00826080936F00888190E085
:1003D000FC01EE0FFF1FE80FF91FEB5FFE4F80815E
:1003E00080648083888103C0882309F3EFCFDF9185
:1003F000CF911F910F91FF90EF90DF90089520E62D
:1004000039E040E252E00C947E01FC0180818C30A6
:1004100070F5918128E830E0291B310997FD33956B
:10042000220F331F220F331F621773077CF0928154
:1004300028E532E0291B310997FD3395220F331F40
:10044000220F331F621773070CF49B014FB7F89408
:1004500090E0FC01EE0FFF1FE80FF91FEB5FFE4F6E
:1004600022503109220F331F328321834FBF089559
:10047000AF92BF92CF92DF92EF92FF920F931F93B2
:10048000CF93DF93EC01603282E078070CF041C03B
:1004900077FD04C0653B710524F405C060E070E0A1
:1004A00002C064EB70E0298188E890E0821B91092A
:1004B00027FD9395880F991F880F991F5C01CC2405
:1004C000B7FCC094DC2C882777FD8095982F2A8173
:1004D00048E552E0421B510927FD5395440F551F33
:1004E000440F551F8A01222717FD2095322F3F9375
:1004F0002F931F930F9314EBE12EF12C00E010E0EB
:1005000020E030E0A9010E94B4030F900F900F90FB
:100510000F90CE01DF91CF911F910F91FF90EF903F
:10052000DF90CF90BF90AF900C9405021F920F9276
:100530000FB60F9211242F933F938F939F93AF93F6
:10054000BF938091290190912A01A0912B01B09134
:100550002C0130913101232F2D5F2D3720F401968E
:10056000A11DB11D05C0232F2A570296A11DB11D43
:10057000209331018093290190932A01A0932B01AC
:10058000B0932C0180912D0190912E01A0912F010B
:10059000B09130010196A11DB11D80932D01909362
:1005A0002E01A0932F01B0933001BF91AF919F9185
:1005B0008F913F912F910F900FBE0F901F90189524
:1005C000789484B5826084BD84B5816084BD85B52E
:1005D000826085BD85B5816085BDEEE6F0E08081F5
:1005E00081608083E1E8F0E0108280818260808316
:1005F000808181608083E0E8F0E080818160808399
:10060000E1EBF0E0808184608083E0EBF0E08081CA
:1006100081608083EAE7F0E080818460808380816C
:100620008260808380818160808380818068808314
:100630001092C1000895833069F028F48130A1F050
:10064000823011F514C08630B1F08730C1F08430AB
:10065000D9F404C0809180008F7703C0809180001E
:100660008F7D80938000089584B58F7702C084B514
:100670008F7D84BD08958091B0008F7703C08091F5
:10068000B0008F7D8093B0000895CF93DF9390E00A
:10069000FC01E458FF4F4491FC01E057FF4F849167
:1006A000882341F190E0880F991FFC01E255FF4F2C
:1006B00025913491D9018C559F4FFC0185919491DE
:1006C000C82FD92F9FB7F8948C91611106C040951F
:1006D00084238C938881842308C0623041F4242FC2
:1006E000209582238C938881842B888302C0842B5D
:1006F0008C939FBFDF91CF9108950F931F93CF935A
:10070000DF931F92CDB7DEB7282F30E0F901E8590B
:10071000FF4F8491F901E458FF4F1491F901E0571C
:10072000FF4F04910023D1F0882321F069830E94B8
:100730001B036981E02FF0E0EE0FFF1FEC55FF4F28
:1007400085919491DC019FB7F8948C91611103C05D
:100750001095812301C0812B8C939FBF0F90DF9157
:10076000CF911F910F9108954F925F926F927F9258
:10077000AF92BF92CF92DF92EF92FF920F931F93AF
:10078000CF93DF93CDB7DEB729013A01621B730B1C
:10079000840B950B29893A894B895C892A193B0975
:1007A0004C095D09298B3A8B4B8B5C8B9B01AC010F
:1007B00069897A898B899C890E940904E418F50863
:1007C00006091709A80197010E9425042A0D3B1D5F
:1007D0004C1D5D1DB901CA01DF91CF911F910F9191
:1007E000FF90EF90DF90CF90BF90AF907F906F9091
:1007F0005F904F900895F8940C9475040E94410402
:10080000A59F900DB49F900DA49F800D911D112464
:100810000895DB018F939F930E94FE03BF91AF91D8
:10082000A29F800D911DA39F900DB29F900D11244A
:100830000895991B79E004C0991F961708F0961B3C
:10084000881F7A95C9F780950895052E97FB16F4B1
:10085000009407D057FD0DD00E944D0407FC09D02D
:100860007EF490958095709561957F4F8F4F9F4F47
:10087000089550954095309521953F4F4F4F5F4FCC
:100880000895A29FB001B39FC001A39F01D0B29F62
:10089000700D811D1124911D0895A1E21A2EAA1B2D
:1008A000BB1BFD010DC0AA1FBB1FEE1FFF1FA21720
:1008B000B307E407F50720F0A21BB30BE40BF50B1D
:1008C000661F771F881F991F1A9469F760957095A6
:1008D000809590959B01AC01BD01CF010895EE0F6D
:0E08E000FF1F0590F491E02D0994F894FFCFCE
:00000001FF
