:100000000C945D000C9485000C9485000C94850084
:100010000C9485000C9485000C9485000C9485004C
:100020000C9485000C9485000C9485000C94AF0111
:100030000C9485000C9485000C9485000C9485002C
:100040000C94CD000C9485000C9485000C948500D4
:100050000C9485000C9485000C9485000C9485000C
:100060000C9485000C94850000000007000201003C
:100070000003040600000000000000000102040864
:100080001020408001020408102001020408102002
:10009000040404040404040402020202020203032E
:1000A0000303030300000000250028002B000000CC
:1000B0000000240027002A00C90011241FBECFEF32
:1000C000D8E0DEBFCDBF11E0A0E0B1E0EAEFF9E09B
:1000D00002C005900D92A030B107D9F711E0A0E061
:1000E000B1E001C01D92A433B107E1F710E0CAEB03
:1000F000D0E004C02297FE010E94F704C83BD1075C
:10010000C9F70E94A2010C9481040C94000066E0DF
:1001100070E080E091E00C940A03109204011092C8
:10012000030113C080E091E00E9443036FE070E0A0
:1001300080E090E00E9441018091030190910401D0
:1001400001969093040180930301609103017091E3
:100150000401653B710534F384EB90E00FC080E04F
:1001600091E00E9443036FE070E080E090E00E9425
:100170004101809103019091040101979093040142
:1001800080930301609103017091040177FFE7CF31
:10019000089580E091E00C946D021F920F920FB6CB
:1001A0000F9211242F933F938F939F93AF93BF93FD
:1001B0008091050190910601A0910701B09108017D
:1001C00030910D01232F2D5F2D3720F40196A11DB5
:1001D000B11D05C0232F2A570296A11DB11D2093E2
:1001E0000D018093050190930601A0930701B09340
:1001F00008018091090190910A01A0910B01B09131
:100200000C010196A11DB11D8093090190930A0173
:10021000A0930B01B0930C01BF91AF919F918F916F
:100220003F912F910F900FBE0F901F9018950F9335
:100230001F939FB7F8940091090110910A01209132
:100240000B0130910C0186B5A89B06C08F3F21F0B1
:100250000F5F1F4F2F4F3F4F9FBF322F212F102F68
:100260000027080F111D211D311D42E0000F111F35
:10027000221F331F4A95D1F7B801C9011F910F9171
:100280000895CF92DF92EF92FF92CF93DF936B01AD
:100290007C010E941701EB010EC00E9417016C1B2C
:1002A0007D0B683E734038F081E0C81AD108E10840
:1002B000F108C851DC4FC114D104E104F10469F71D
:1002C000DF91CF91FF90EF90DF90CF9008957894D9
:1002D00084B5826084BD84B5816084BD85B582604B
:1002E00085BD85B5816085BDEEE6F0E080818160E9
:1002F0008083E1E8F0E010828081826080838081E9
:1003000081608083E0E8F0E0808181608083E1EBC0
:10031000F0E0808184608083E0EBF0E080818160A8
:100320008083EAE7F0E0808184608083808182605E
:100330008083808181608083808180688083109247
:10034000C10008950E9467010E948700C0E0D0E0CC
:100350000E948D002097E1F30E940000F9CF1F92C8
:100360000F920FB60F9211242F933F934F935F93E9
:100370006F937F938F939F93AF93BF93EF93FF936D
:1003800080910F0187FF05C01092850010928400B4
:100390001AC020910F01332727FD309580910E015F
:1003A00090E0281739077CF480910F01992787FD89
:1003B0009095FC01EE0FFF1FE80FF91FE05FFE4F65
:1003C000808186FD37C080910F018F5F80930F0180
:1003D00020910F01332727FD309580910E0190E089
:1003E00028173907CCF580910F018C30F4F134C017
:1003F00080910F01992787FD9095FC01EE0FFF1F5B
:10040000E80FF91FE05FFE4F808161E08F730E946B
:10041000030452C080E49CE905C08091840090915F
:100420008500049690938900809388008FEF8093D5
:100430000F0142C080910F01992787FD9095FC0123
:10044000EE0FFF1FE80FF91FE05FFE4F808160E0B5
:100450008F730E940304B7CF809184009091850030
:10046000049680349C49B0F2D8CF8091840090915A
:10047000850020910F01332727FD3095F901EE0FFC
:10048000FF1FE20FF31FE05FFE4F21813281820FD9
:10049000931F909389008093880080910F01992782
:1004A00087FD9095FC01EE0FFF1FE80FF91FE05F3D
:1004B000FE4F808186FD9CCFFF91EF91BF91AF9160
:1004C0009F918F917F916F915F914F913F912F916C
:1004D0000F900FBE0F901F90189520910E012C3099
:1004E000A0F4FC012083822F8F5F80930E01822F66
:1004F00090E0FC01EE0FFF1FE80FF91FE05FFE4FD9
:1005000088EB9BE09283818308952FEFFC01208389
:100510000895DF92EF92FF920F931F93CF93DF9393
:10052000EC01D62E7A01890188818C3008F065C0F3
:1005300061E08D2D0E94CB038881A82FB0E0FD01E2
:10054000EE0FFF1FEA0FFB1FE05FFE4F2D2D2F73F5
:100550009081907C922B908360E272E06E197F090B
:1005600077FF02C06D5F7F4F7595679575956795AD
:10057000698340E659E0401B510B57FF02C04D5FB5
:100580005F4F55954795559547954A836CE00E9476
:100590009F049CE0899FB001112420E030E0A90174
:1005A000460F571FFA01EE0FFF1FE40FF51FE05F24
:1005B000FE4F908196FD15C02F5F3F4F2C303105C7
:1005C00071F71DC01092800082E08093810010922C
:1005D000850010928400B19A80916F0082608093B0
:1005E0006F00888190E0FC01EE0FFF1FE80FF91FFC
:1005F000E05FFE4F808180648083888103C0882310
:1006000009F3EFCFDF91CF911F910F91FF90EF9002
:10061000DF90089520E639E040E252E00C94890230
:10062000FC0180818C3070F5918128E830E0291B35
:10063000310997FD3395220F331F220F331F6217A5
:1006400073077CF0928128E532E0291B310997FD80
:100650003395220F331F220F331F621773070CF4D9
:100660009B014FB7F89490E0FC01EE0FFF1FE80FDD
:10067000F91FE05FFE4F22503109220F331F3283F2
:1006800021834FBF0895AF92BF92CF92DF92EF9236
:10069000FF920F931F93CF93DF93EC01603282E0C0
:1006A00078070CF041C077FD04C0653B710524F468
:1006B00005C060E070E002C064EB70E0298188E86A
:1006C00090E0821B910927FD9395880F991F880F51
:1006D000991F5C01CC24B7FCC094DC2C882777FDE3
:1006E0008095982F2A8148E552E0421B510927FD49
:1006F0005395440F551F440F551F8A01222717FD9C
:100700002095322F3F932F931F930F9314EBE12EDD
:10071000F12C00E010E020E030E0A9010E943A0452
:100720000F900F900F900F90CE01DF91CF911F91FE
:100730000F91FF90EF90DF90CF90BF90AF900C940F
:100740001003833069F028F48130A1F0823011F574
:1007500014C08630B1F08730C1F08430D9F404C0C1
:10076000809180008F7703C0809180008F7D80937F
:100770008000089584B58F7702C084B58F7D84BDD5
:1007800008958091B0008F7703C08091B0008F7D75
:100790008093B0000895CF93DF9390E0FC01E4587C
:1007A000FF4F4491FC01E057FF4F8491882341F1B2
:1007B00090E0880F991FFC01E255FF4F259134917D
:1007C000D9018C559F4FFC0185919491C82FD92F49
:1007D0009FB7F8948C91611106C0409584238C9347
:1007E0008881842308C0623041F4242F209582231D
:1007F0008C938881842B888302C0842B8C939FBF29
:10080000DF91CF9108950F931F93CF93DF931F92A2
:10081000CDB7DEB7282F30E0F901E859FF4F8491BA
:10082000F901E458FF4F1491F901E057FF4F04918B
:100830000023D1F0882321F069830E94A1036981FC
:10084000E02FF0E0EE0FFF1FEC55FF4F85919491E4
:10085000DC019FB7F8948C91611103C0109581233E
:1008600001C0812B8C939FBF0F90DF91CF911F917F
:100870000F9108954F925F926F927F92AF92BF92C5
:10088000CF92DF92EF92FF920F931F93CF93DF935C
:10089000CDB7DEB729013A01621B730B840B950BB0
:1008A00029893A894B895C892A193B094C095D09D8
:1008B000298B3A8B4B8B5C8B9B01AC0169897A89C4
:1008C0008B899C890E948F04E418F5080609170992
:1008D000A80197010E94AB042A0D3B1D4C1D5D1D14
:1008E000B901CA01DF91CF911F910F91FF90EF9055
:1008F000DF90CF90BF90AF907F906F905F904F90C0
:100900000895F8940C94FB040E94C704A59F900DD1
:10091000B49F900DA49F800D911D11240895DB01BB
:100920008F939F930E948404BF91AF91A29F800DEB
:10093000911DA39F900DB29F900D11240895991BB6
:1009400079E004C0991F961708F0961B881F7A95C6
:10095000C9F780950895052E97FB16F4009407D0EB
:1009600057FD0DD00E94D30407FC09D07EF490956A
:100970008095709561957F4F8F4F9F4F089550954B
:100980004095309521953F4F4F4F5F4F0895A29F5F
:10099000B001B39FC001A39F01D0B29F700D811D14
:1009A0001124911D0895A1E21A2EAA1BBB1BFD0163
:1009B0000DC0AA1FBB1FEE1FFF1FA217B307E4073E
:1009C000F50720F0A21BB30BE40BF50B661F771F96
:1009D000881F991F1A9469F7609570958095909576
:1009E0009B01AC01BD01CF010895EE0FFF1F0590E3
:0A09F000F491E02D0994F894FFCF74
:00000001FF
